Respons Analyse
…
## Warning: Factor `R1DEMOVATE6_Offentlig1` contains implicit NA, consider using
## `forcats::fct_explicit_na`

## # A tibble: 2 x 2
## # Groups:   R1DEMOVATE6_Offentlig1 [2]
##   R1DEMOVATE6_Offentlig1                                                       n
##   <fct>                                                                    <int>
## 1 Hvem som deltok i borgerpanelet og hvordan de stemte vil være offentlig    224
## 2 Hvem som deltok i borgerpanelet og hvordan de stemte vil ikke være offe~   222

d_factored %>% group_by(R1DEMOVATE6_1)                %>% count(R1DEMOVATE6_1)                %>% filter(!is.na(R1DEMOVATE6_1))

## # A tibble: 31 x 2
## # Groups:   R1DEMOVATE6_1 [31]
##    R1DEMOVATE6_1     n
##            <dbl> <int>
##  1             0   102
##  2             1     9
##  3             2     5
##  4             3     5
##  5             4     4
##  6             5     9
##  7             6     3
##  8             7     2
##  9             8     2
## 10             9     3
## # ... with 21 more rows
…
## Warning: Factor `R1DEMOVATE6_Offentlig2` contains implicit NA, consider using
## `forcats::fct_explicit_na`

## # A tibble: 2 x 2
## # Groups:   R1DEMOVATE6_Offentlig2 [2]
##   R1DEMOVATE6_Offentlig2                                                       n
##   <fct>                                                                    <int>
## 1 Hvem som deltok i borgerpanelet og hvordan de stemte vil være offentlig    217
## 2 Hvem som deltok i borgerpanelet og hvordan de stemte vil ikke være offe~   229

d_factored %>% group_by(R1DEMOVATE6_2)                %>% count(R1DEMOVATE6_2)                %>% filter(!is.na(R1DEMOVATE6_2))

## # A tibble: 32 x 2
## # Groups:   R1DEMOVATE6_2 [32]
##    R1DEMOVATE6_2     n
##            <dbl> <int>
##  1             0   110
##  2             1     7
##  3             2     6
##  4             3     3
##  5             4     5
##  6             5     9
##  7             6     2
##  8             7     3
##  9             8     2
## 10             9     1
## # ... with 22 more rows
…
## Warning: Factor `R1DEMOVATE6_Offentlig3` contains implicit NA, consider using
## `forcats::fct_explicit_na`

## # A tibble: 2 x 2
## # Groups:   R1DEMOVATE6_Offentlig3 [2]
##   R1DEMOVATE6_Offentlig3                                                       n
##   <fct>                                                                    <int>
## 1 Hvem som deltok i borgerpanelet og hvordan de stemte vil være offentlig    222
## 2 Hvem som deltok i borgerpanelet og hvordan de stemte vil ikke være offe~   224

d_factored %>% group_by(R1DEMOVATE6_3)                    %>% count(R1DEMOVATE6_3)                %>% filter(!is.na(R1DEMOVATE6_3))

## # A tibble: 32 x 2
## # Groups:   R1DEMOVATE6_3 [32]
##    R1DEMOVATE6_3     n
##            <dbl> <int>
##  1             0   121
##  2             1     5
##  3             2     6
##  4             3     5
##  5             4     4
##  6             5    12
##  7             6     2
##  8             7     3
##  9             8     2
## 10             9     2
## # ... with 22 more rows
…
